{
	"text": [
		{
			"Key": "PC1",
			"Content": "<color=\"red\">Je ne comprends pas, pourquoi c'était à lui de partir...\nIl n'avait rien fait de mal... J'aurai dû partir à sa place. Il avait une famille, un job, des amis...\nTout est ma faute... Je n'ai pas été à la hauteur... Je suis seul... Je suis vide... Un vide... Qui suis-je ?</color>\n<color=\"blue\">Tu es vide.</color>\n<color=\"red\">Je... Non, il m'avait donné un nom... J'étais quelqu'un, j'avais un nom.</color>\n<color=\"blue\">Je ne peux pas le croire, tu n'es rien pour lui.</color>"
		},
		{
			"Key": "Item1",
			"Content": "Cette musique... Elle me rappelle cette soirée d'été où il dansait, d'une manière simple et pourtant si éclatante.\nOn aurait pu croire apercevoir une fleur.\nSes pétales, resplendissants, s'envolaient au gré du vent.\nIls formaient dans leur sillage comme un parfum boisé indescriptible.\nPourtant, dans cette somptuosité, je ressentais une amertume, quasiment imperceptible, mais dont la présence n'était plus à démontrer, elle était là..."
		},
		{
			"Key": "Item2",
			"Content": "Un poster d’une étoile. Elle s’appelle Methuselah.\nSa particularité réside dans son ancienneté, qui d’après les scientifiques, dépasse celle de l’univers même...\nJ’avais acheté ce poster à l’occasion de son vingtième anniversaire.\nIl avait passé la journée à rire et danser.\nHeureusement pour lui, je n'avais pas pris mon appareil photo ce jour-là.\nIl aurait été triste de voir les montages photos innombrables que je faisais de lui.\nJe lui avais offert un pendentif fait en lapis-lazuli, pierre symbolique de l’amitié.\nMais il m'a dit qu'il n’avait nul besoin d'une pierre pour m'aimer..."
		},
		{
			"Key": "Item3",
			"Content": "Lui et moi passions nos journées sur Mario Kart quand nous étions plus jeunes.\nC'était un vrai délire.\nIl croyait qu'il était le meilleur alors que je le laissais gagner pour voir son sourire doux et réconfortant.\nMalgré tout, je ne pense pas qu'il appréciait les raclées que je lui mettais sur ce jeu, lorsqu'il me disait qu'il avait une chance de me battre.\nNos pseudos étaient « Roppi » et « Junpo »."
		},
		{
			"Key": "PC2",
			"Content": "<color=\"red\">C'était ça... Je m'appelais Roppi. J'ai bien un nom, je suis quelqu'un.</color>\n<color=\"blue\">Tu as un nom, tu es quelqu'un, mais tu n'as pas d'histoire.\nLa seule histoire que tu as écrite, c'est celle de la mort de ton ami.\nTu crois que je suis là pour te faire du mal ? Détrompe-toi, je suis là pour te protéger.</color>\n<color=\"red\">Mais... De quoi voudrais-tu me protéger ? Je veux savoir qui je suis...\nSi j'ai un nom, je dois bien avoir une histoire.</color>\n<color=\"blue\">Cette histoire que tu souhaites tant savoir, elle t'a fait souffrir à en rejeter ta propre existence.</color>\n<color=\"blue\">Tu m'as appelé.</color>\n<color=\"blue\">Je suis là.</color>\n<color=\"blue\">Tu es vide, et c'est très bien comme ça.\nTu as un nom. Mais tu ne peux pas connaître l'histoire. Après tout, c'est toi qui as choisi d'oublier.\nJe te protège de la vérité. Tu veux souffrir ?</color>\n<color=\"red\">Non...</color>\n<color=\"red\">Mais je veux savoir qui je suis. Dis-le-moi.</color>\n<color=\"blue\">Non.</color>\n<color=\"red\">DIS-LE</color>\n<color=\"blue\">Très bien. Mais c'est à toi de trouver la vérité. Je te protégeais, mais tu as fait ton choix. Je t'offre ce souvenir...</color>"
		},
		{
			"Key": "PC2_Answer",
			"Content": "Roppi"
		},
		{
			"Key": "PC3",
			"Content": "<color=\"red\">Je me souviens maintenant... Ce pendentif que j’avais offert à mon ami.\nIl contenait un message... Mais je ne saurai dire où il se trouve...\nPourquoi mes yeux pleurent ... ?\nC’est le même sentiment que ce jour... Cette amertume...\nNous étions partis sur la plage après avoir dansé cette soirée-là.\nNous observions les étoiles à la recherche de celle qui brillait le plus.\nIl y avait cette étoile, mystérieuse, et pourtant fascinante.\nMethuselah, c’était son nom...\nLe pendentif que je lui avais offert brillait de mille feux, comme s’il avait absorbé l’éclatante lumière de Methuselah.\nMais l’espace d’un instant, je ne sentais plus qu’il était là, je me suis retourné, il avait disparu...\nIl ne restait qu’une seule chose...\nLe pendentif...</color>"
		},
		{
			"Key": "Item4",
			"Content": "Nous allions souvent dans les bois.\nNous nous amusions à planter des graines au bord des chemins. \nNous espérions que les passants auraient un jour l’opportunité \nd’observer ces magnifiques plantes que nous avions planté, \ndes années auparavant.\nJe crois que ces plantes étaient les agapanthes, leur éclat bleu \nindicible ne saurait jamais me satisfaire, je pourrais passer des journées à les admirer.\nMais, si je le faisais, il n’arrêterait pas de demander pourquoi j’observe ces fleurs, \nà l’aspect bleu ombré teinté de blanc.\nPourtant, le message qu’elle offre est généreux, \nmais sa compréhension n’est offerte qu’à ceux qui seraient prêt à être assez miséricordieux \npour accueillir ce vide.\nSes pétales fragiles laissent entrevoir qu’elle serait prête à s’ouvrir, \npour qui arriverait à la cueillir.\nJ’aurai compris le sens d’avoir un ami... \nEt c’est peut-être l’une des plus belles choses que la vie ait à nous offrir.\nComme une fleur, l’amitié doit être subtilement cueillie \nafin de ne pas abîmer ses plus fragiles pétales.\nCela demande un long travail, \nmais lorsqu’on sait comment agir, \nla fleur cueillie peut être sublime.\nElle peut être l’incarnation de la vie elle-même ; \nIncroyablement forte de caractère, et pourtant si vulnérable. "
		},
		{
			"Key": "Item5",
			"Content": "Le centre du poster émet une faible lueur,\njustement à l’endroit où l’étoile Methuselah est représentée.\nJe ne comprends pas ?\nJ’enlève le poster.\nMais ça ne peut pas être le hasard, \nle pendentif resplendit exactement à l’endroit où se trouve Methuselah sur le poster.\nJe... ? Il est là.\nJe ressens sa présence... "
		},
		{
			"Key": "Item6",
			"Content": "Le pendentif... Il est là.\nIl n’a pas changé...\nJ’ouvre le pendentif. Et...Je...Je... découvre son message... \nPourquoi ai-je le coeur qui bat vite ? \n <i>« Regarde-toi, tu n’as pas à t’en vouloir.</i>\n<i>J’ai rejoint quelque chose de plus grand.</i>\n<i>Je répare la vie, et je la propage.<i>\n<i>Et ma disparition n’inclut que moi, c’est mon choix.</i> \n<i>Alors, s’il te plaît, lève la tête, et soit fier de qui tu es. »</i>"
		}
	]
}